{
    "data":[
        {
            "id":1,
            "Volleyballid": 1,
            "Volleyballheading":"Inter Branch Volleyball",
            "Volleyballimg" : "sports5.jpg"
        },
        {
            "id":2,
            "Volleyballid": 2,
            "Volleyballheading":"Inter Branch Volleyball",
            "Volleyballimg" : "sports6.jpg"
        },
        {
            "id":3,
            "Volleyballid": 3,
            "Volleyballheading":"Inter Branch Volleyball",
            "Volleyballimg" : "sports8.jpg"
        },
        {
            "id":4,
            "Volleyballid": 4,
            "Volleyballheading":"Inter Branch Volleyball",
            "Volleyballimg" : "sports7.jpg"
        },
        {
            "id":5,
            "Volleyballid": 5,
            "Volleyballheading":"Inter Branch Volleyball",
            "Volleyballimg" : "volly1.jpg"
        },
        {
            "id":6,
            "Volleyballid": 6,
            "Volleyballheading":"Inter Branch Volleyball",
            "Volleyballimg" : "volly2.png"
        },
        {
            "id":7,
            "Volleyballid": 7,
            "Volleyballheading":"Inter Branch Volleyball",
            "Volleyballimg" : "volly3.png"
        }
    ]
}
