{
    "data":[
        {
            "id":1,
            "BEaddmissionid" :1,
            "BEaddmissionheading" : "Admission Brochure",
            "BEaddmissiontextlink" : "pdf/Admission_Procedures/JUA_Brochure_2022-23.pdf"
        },
        {
            "id":2,
            "BEaddmissionid" :2,
            "BEaddmissionheading" : "Admission Procedure",
            "BEaddmissiontextlink" : "pdf/Admission_Procedures/SupplAdmsBrochure2022P2.pdf"
        },
        {
            "id":3,
            "BEaddmissionid" :3,
            "BEaddmissionheading" : "Download Offline Application Form for 10+2 Marks Based",
            "BEaddmissiontextlink" : "pdf/Admission_Procedures/BTech_Admission_Form_2022-23_1.pdf"
        },
        {
            "id":4,
            "BEaddmissionid" :4,
            "BEaddmissionheading" : "Download Offline Application Form for JEE Mains Based",
            "BEaddmissiontextlink" : "pdf/Admission_Procedures/JEEApplForm2022.pdf"
        },
    
        {
            "id":5,
            "BEaddmissionid" :5,
            "BEaddmissionheading" : "Apply Online",
            "BEaddmissiontextlink" : "https://getadmissions.com/jaypee"
        }
    ]
}