{
    "data":[
        {
            "id":1,
            "hostelId": 1,
            "hostelImage": "IMG_4390.jpg"
        },
        {
            "id":2,
            "hostelId": 2,
            "hostelImage": "IMG_4393.jpg"
        },
        {
            "id":3,
            "hostelId": 3,
            "hostelImage": "IMG_4410.jpg"
        },
        {
            "id":4,
            "hostelId": 4,
            "hostelImage": "IMG_4414.jpg"
        }
    ]
}