{
    "data":[
        {
            "id":1,
            "Infrahomeid": 1,
            "Infrahomeimg" : "Anapurna and Boys Hostel.jpg"
        },
        {
            "id":2,
            "Infrahomeid": 2,
            "Infrahomeimg" : "Entrance.jpg"
        },
        {
            "id":3,
            "Infrahomeid": 3,
            "Infrahomeimg" : "IMG_4405.jpg"
        },
        {
            "id":4,
            "Infrahomeid": 4,
            "Infrahomeimg" : "IMG_4408.jpg"
        },
        {
            "id":5,
            "Infrahomeid": 5,
            "Infrahomeimg" : "Academc Block.jpg"
        },
        {
            "id":6,
            "Infrahomeid": 6,
            "Infrahomeimg" : "IMG_4409.jpg"
        },
        {
            "id":7,
            "Infrahomeid": 7,
            "Infrahomeimg" : "IMG_4490.jpg"
        },
        {
            "id":8,
            "Infrahomeid": 8,
            "Infrahomeimg" : "IMG_4505.jpg"
        },
        {
            "id":9,
            "Infrahomeid": 9,
            "Infrahomeimg" : "Ram Sadan.jpg"
        },
        {
            "id":10,
            "Infrahomeid": 10,
            "Infrahomeimg" : "Workshop and cafeteria.jpg"
        }
    ]
}